{
    "_id": ObjectID("5ef7766440d2420be7958eb2"),
    "nivelEquipe": [],
    "consultorResponsavel": ObjectID("5eb6dcb9a501ec0d42e435c9"),
    "cliente": ObjectID("5ef189e76a2de01a20773593"),
    "contatoCliente": ObjectID("5ef4a73fc9007908f5151a4d"),
    "status": "Ativo 3",
    "titulo": "Título do projeto",
    "dataAbertura": ISODate("2020-06-15T15:00:00.000Z"),
    "honorario": {
        "currency": "BRL",
        "value": "5.000"
    },
    "objetivo": "Lorem ipsum dolor sit amet, consectetur adipiscing elit, sed do eiusmod tempor incididunt ut labore et dolore magna aliqua.",
    "__v": 0
}