{
    "_id": ObjectID("5ef7762c40d2420be7958eaf"),
    "nivelEquipe": [],
    "consultorResponsavel": ObjectID("5eb6dcb9a501ec0d42e435c9"),
    "cliente": ObjectID("5ef189e76a2de01a20773593"),
    "contatoCliente": ObjectID("5ef4a73fc9007908f5151a4d"),
    "status": "Ativo 2",
    "titulo": "Título do Projeto",
    "dataAbertura": ISODate("2020-06-10T15:00:00.000Z"),
    "honorario": {
        "currency": "BRL",
        "value": "6.000"
    },
    "objetivo": "Ut enim ad minim veniam, quis nostrud exercitation ullamco laboris nisi ut aliquip ex ea commodo consequat.",
    "__v": 0
}